INDEX VERSION 1.130+C:\Users\aleb9\Desktop\PracticaDebugger\.metadata\.plugins\org.eclipse.jdt.core
3263897811.index
897659091.index
1233919542.index
4212195811.index
531533494.index
1860485910.index
1845031563.index
202638269.index
3852737441.index
1241298325.index
144380394.index
1401678300.index
3421597620.index
1943575548.index
2899478204.index
1067094681.index
1942359185.index
2492909726.index
